<?xml version="1.0" encoding="utf-8" standalone="yes"?>
<gpx version="1.1" creator="Benjamin Vincent" xmlns="http://www.topografix.com/GPX/1/1" xmlns:xsi="http://www.w3.org/2001/XMLSchema-instance" xsi:schemaLocation="http://www.topografix.com/GPX/1/1 http://www.topografix.com/GPX/1/1/gpx.xsd">
<trk>
  <name>09/05/2020, 22:00:54</name>
  <trkseg>
    <trkpt lat="44.710972822" lon="5.47309041">
      <ele>773.051</ele>
    </trkpt>
    <trkpt lat="44.711121819" lon="5.472902656">
      <ele>772.157</ele>
    </trkpt>
    <trkpt lat="44.711257156" lon="5.472752452">
      <ele>773.708</ele>
    </trkpt>
    <trkpt lat="44.711396304" lon="5.47260493">
      <ele>775.345</ele>
    </trkpt>
    <trkpt lat="44.711552607" lon="5.47247082">
      <ele>777.873</ele>
    </trkpt>
    <trkpt lat="44.711710816" lon="5.472339392">
      <ele>780.122</ele>
    </trkpt>
    <trkpt lat="44.711817559" lon="5.472130179">
      <ele>781.961</ele>
    </trkpt>
    <trkpt lat="44.711891898" lon="5.47187537">
      <ele>783.883</ele>
    </trkpt>
    <trkpt lat="44.71196433" lon="5.471617877">
      <ele>786.546</ele>
    </trkpt>
    <trkpt lat="44.712008171" lon="5.471328199">
      <ele>788.645</ele>
    </trkpt>
    <trkpt lat="44.712031044" lon="5.471025109">
      <ele>790.588</ele>
    </trkpt>
    <trkpt lat="44.712063448" lon="5.470708609">
      <ele>793.133</ele>
    </trkpt>
    <trkpt lat="44.712095852" lon="5.470397472">
      <ele>795.643</ele>
    </trkpt>
    <trkpt lat="44.712155259" lon="5.470271409">
      <ele>797.565</ele>
    </trkpt>
    <trkpt lat="44.712276933" lon="5.470123887">
      <ele>801.321</ele>
    </trkpt>
    <trkpt lat="44.712339834" lon="5.470038056">
      <ele>803.466</ele>
    </trkpt>
    <trkpt lat="44.712404642" lon="5.469952226">
      <ele>805.287</ele>
    </trkpt>
    <trkpt lat="44.712473262" lon="5.469863713">
      <ele>806.754</ele>
    </trkpt>
    <trkpt lat="44.712541881" lon="5.4697752">
      <ele>808.432</ele>
    </trkpt>
    <trkpt lat="44.712612407" lon="5.46967864">
      <ele>810.354</ele>
    </trkpt>
    <trkpt lat="44.712701993" lon="5.469584763">
      <ele>813.054</ele>
    </trkpt>
    <trkpt lat="44.712816359" lon="5.469464064">
      <ele>814.817</ele>
    </trkpt>
    <trkpt lat="44.712942161" lon="5.469338">
      <ele>815.601</ele>
    </trkpt>
    <trkpt lat="44.713090835" lon="5.469209254">
      <ele>817.166</ele>
    </trkpt>
    <trkpt lat="44.713275725" lon="5.46910733">
      <ele>820.248</ele>
    </trkpt>
    <trkpt lat="44.713256664" lon="5.469182432">
      <ele>820.663</ele>
    </trkpt>
    <trkpt lat="44.713228073" lon="5.469260216">
      <ele>821.446</ele>
    </trkpt>
    <trkpt lat="44.713188045" lon="5.469343364">
      <ele>821.651</ele>
    </trkpt>
    <trkpt lat="44.713148018" lon="5.469426513">
      <ele>821.425</ele>
    </trkpt>
    <trkpt lat="44.71310799" lon="5.469512343">
      <ele>822.124</ele>
    </trkpt>
    <trkpt lat="44.713067962" lon="5.469598174">
      <ele>822.968</ele>
    </trkpt>
    <trkpt lat="44.713027935" lon="5.469686687">
      <ele>824.145</ele>
    </trkpt>
    <trkpt lat="44.712987907" lon="5.4697752">
      <ele>826.292</ele>
    </trkpt>
    <trkpt lat="44.712938349" lon="5.469871759">
      <ele>828.831</ele>
    </trkpt>
    <trkpt lat="44.71288879" lon="5.469968319">
      <ele>830.873</ele>
    </trkpt>
    <trkpt lat="44.712839232" lon="5.470064878">
      <ele>832.236</ele>
    </trkpt>
    <trkpt lat="44.712787768" lon="5.47016412">
      <ele>832.891</ele>
    </trkpt>
    <trkpt lat="44.712959315" lon="5.470072925">
      <ele>838.717</ele>
    </trkpt>
    <trkpt lat="44.713128957" lon="5.469946861">
      <ele>841.398</ele>
    </trkpt>
    <trkpt lat="44.713243322" lon="5.469812751">
      <ele>840.011</ele>
    </trkpt>
    <trkpt lat="44.71335578" lon="5.469662547">
      <ele>838.497</ele>
    </trkpt>
    <trkpt lat="44.713481581" lon="5.469531119">
      <ele>842.226</ele>
    </trkpt>
    <trkpt lat="44.713616911" lon="5.469394326">
      <ele>845.765</ele>
    </trkpt>
    <trkpt lat="44.713601981" lon="5.46952039">
      <ele>849.936</ele>
    </trkpt>
    <trkpt lat="44.713603569" lon="5.469622314">
      <ele>854.783</ele>
    </trkpt>
    <trkpt lat="44.713544481" lon="5.469740331">
      <ele>855.774</ele>
    </trkpt>
    <trkpt lat="44.713491111" lon="5.469866395">
      <ele>857.983</ele>
    </trkpt>
    <trkpt lat="44.713437741" lon="5.469992459">
      <ele>861.238</ele>
    </trkpt>
    <trkpt lat="44.713384371" lon="5.470118523">
      <ele>864.494</ele>
    </trkpt>
    <trkpt lat="44.713331001" lon="5.470244586">
      <ele>868.193</ele>
    </trkpt>
    <trkpt lat="44.713277631" lon="5.470378697">
      <ele>869.771</ele>
    </trkpt>
    <trkpt lat="44.713226167" lon="5.470539629">
      <ele>871.732</ele>
    </trkpt>
    <trkpt lat="44.713191858" lon="5.470727384">
      <ele>870.956</ele>
    </trkpt>
    <trkpt lat="44.713201388" lon="5.470939279">
      <ele>871.212</ele>
    </trkpt>
    <trkpt lat="44.713273819" lon="5.47078371">
      <ele>876.546</ele>
    </trkpt>
    <trkpt lat="44.713336719" lon="5.470633507">
      <ele>878.998</ele>
    </trkpt>
    <trkpt lat="44.713350062" lon="5.47085613">
      <ele>881.759</ele>
    </trkpt>
    <trkpt lat="44.713388183" lon="5.471081436">
      <ele>882.881</ele>
    </trkpt>
    <trkpt lat="44.713458708" lon="5.470987558">
      <ele>887.662</ele>
    </trkpt>
    <trkpt lat="44.713531138" lon="5.470823944">
      <ele>891.508</ele>
    </trkpt>
    <trkpt lat="44.713601663" lon="5.470657647">
      <ele>891.759</ele>
    </trkpt>
    <trkpt lat="44.713634066" lon="5.470585227">
      <ele>892.063</ele>
    </trkpt>
    <trkpt lat="44.71364169" lon="5.470890999">
      <ele>898.484</ele>
    </trkpt>
    <trkpt lat="44.71364169" lon="5.4710868">
      <ele>899.816</ele>
    </trkpt>
    <trkpt lat="44.713788457" lon="5.471073389">
      <ele>909.307</ele>
    </trkpt>
    <trkpt lat="44.713929505" lon="5.471092165">
      <ele>918.291</ele>
    </trkpt>
    <trkpt lat="44.714066741" lon="5.471105576">
      <ele>926.25</ele>
    </trkpt>
    <trkpt lat="44.714209694" lon="5.471030474">
      <ele>935.118</ele>
    </trkpt>
    <trkpt lat="44.714339305" lon="5.470947325">
      <ele>942.821</ele>
    </trkpt>
    <trkpt lat="44.71446701" lon="5.470882952">
      <ele>949.451</ele>
    </trkpt>
    <trkpt lat="44.714510849" lon="5.471153855">
      <ele>955.808</ele>
    </trkpt>
    <trkpt lat="44.714892054" lon="5.470700562">
      <ele>970.793</ele>
    </trkpt>
    <trkpt lat="44.714954953" lon="5.471577644">
      <ele>996.737</ele>
    </trkpt>
    <trkpt lat="44.715122683" lon="5.47095269">
      <ele>996.473</ele>
    </trkpt>
    <trkpt lat="44.715345686" lon="5.470974147">
      <ele>1003.491</ele>
    </trkpt>
    <trkpt lat="44.715559158" lon="5.471046567">
      <ele>1005.992</ele>
    </trkpt>
    <trkpt lat="44.715789784" lon="5.471108258">
      <ele>1006.435</ele>
    </trkpt>
    <trkpt lat="44.716020409" lon="5.471237004">
      <ele>1011.231</ele>
    </trkpt>
    <trkpt lat="44.716348555" lon="5.47134161">
      <ele>1015.986</ele>
    </trkpt>
  </trkseg>
</trk>
</gpx>
