<?xml version="1.0" encoding="utf-8" standalone="yes"?>
<gpx version="1.1" creator="Benjamin Vincent" xmlns="http://www.topografix.com/GPX/1/1" xmlns:xsi="http://www.w3.org/2001/XMLSchema-instance" xsi:schemaLocation="http://www.topografix.com/GPX/1/1 http://www.topografix.com/GPX/1/1/gpx.xsd">
<trk>
  <name>09/05/2020, 22:38:03</name>
  <trkseg>
    <trkpt lat="44.696410218" lon="5.484090149">
      <ele>600.23</ele>
    </trkpt>
    <trkpt lat="44.696506502" lon="5.48417598">
      <ele>601.284</ele>
    </trkpt>
    <trkpt lat="44.696651406" lon="5.484264493">
      <ele>603.168</ele>
    </trkpt>
    <trkpt lat="44.696771523" lon="5.484234989">
      <ele>605.517</ele>
    </trkpt>
    <trkpt lat="44.69690308" lon="5.484216213">
      <ele>608.529</ele>
    </trkpt>
    <trkpt lat="44.697065142" lon="5.484216213">
      <ele>613.065</ele>
    </trkpt>
    <trkpt lat="44.69712806" lon="5.484275222">
      <ele>613.743</ele>
    </trkpt>
    <trkpt lat="44.697187165" lon="5.484363735">
      <ele>613.256</ele>
    </trkpt>
    <trkpt lat="44.697260887" lon="5.484449565">
      <ele>613.108</ele>
    </trkpt>
    <trkpt lat="44.697319991" lon="5.484519303">
      <ele>614.626</ele>
    </trkpt>
    <trkpt lat="44.697372105" lon="5.484594405">
      <ele>615.734</ele>
    </trkpt>
    <trkpt lat="44.697419134" lon="5.484656096">
      <ele>616.591</ele>
    </trkpt>
    <trkpt lat="44.697552596" lon="5.484693646">
      <ele>621.046</ele>
    </trkpt>
    <trkpt lat="44.697552596" lon="5.484782159">
      <ele>621.406</ele>
    </trkpt>
    <trkpt lat="44.697577382" lon="5.484798253">
      <ele>622.847</ele>
    </trkpt>
    <trkpt lat="44.697588821" lon="5.484774113">
      <ele>623.237</ele>
    </trkpt>
    <trkpt lat="44.697588821" lon="5.484728515">
      <ele>622.85</ele>
    </trkpt>
    <trkpt lat="44.697619327" lon="5.484720469">
      <ele>624.456</ele>
    </trkpt>
    <trkpt lat="44.697632673" lon="5.484755337">
      <ele>625.408</ele>
    </trkpt>
    <trkpt lat="44.697646019" lon="5.484841168">
      <ele>626.719</ele>
    </trkpt>
    <trkpt lat="44.697678431" lon="5.48494041">
      <ele>628.983</ele>
    </trkpt>
    <trkpt lat="44.69771275" lon="5.484956503">
      <ele>630.727</ele>
    </trkpt>
    <trkpt lat="44.697728002" lon="5.484889448">
      <ele>631.13</ele>
    </trkpt>
    <trkpt lat="44.697762321" lon="5.484859943">
      <ele>632.716</ele>
    </trkpt>
    <trkpt lat="44.697792826" lon="5.48489213">
      <ele>634.545</ele>
    </trkpt>
    <trkpt lat="44.697800453" lon="5.484983325">
      <ele>635.4</ele>
    </trkpt>
    <trkpt lat="44.697783293" lon="5.485077202">
      <ele>635.18</ele>
    </trkpt>
    <trkpt lat="44.697748975" lon="5.485205948">
      <ele>634.953</ele>
    </trkpt>
    <trkpt lat="44.69771275" lon="5.485291779">
      <ele>634.354</ele>
    </trkpt>
    <trkpt lat="44.697735629" lon="5.485350788">
      <ele>636.008</ele>
    </trkpt>
    <trkpt lat="44.697858286" lon="5.485208631">
      <ele>641.035</ele>
    </trkpt>
    <trkpt lat="44.697942175" lon="5.485104024">
      <ele>645.333</ele>
    </trkpt>
    <trkpt lat="44.698018439" lon="5.484991372">
      <ele>649.51</ele>
    </trkpt>
    <trkpt lat="44.698037504" lon="5.484905541">
      <ele>649.854</ele>
    </trkpt>
    <trkpt lat="44.698045131" lon="5.484790206">
      <ele>649.115</ele>
    </trkpt>
    <trkpt lat="44.69805085" lon="5.484672189">
      <ele>648.204</ele>
    </trkpt>
    <trkpt lat="44.698073729" lon="5.484543443">
      <ele>647.863</ele>
    </trkpt>
    <trkpt lat="44.698085169" lon="5.484460294">
      <ele>647.274</ele>
    </trkpt>
    <trkpt lat="44.698197657" lon="5.484398603">
      <ele>650.609</ele>
    </trkpt>
    <trkpt lat="44.698310144" lon="5.484336913">
      <ele>653.036</ele>
    </trkpt>
    <trkpt lat="44.698428351" lon="5.484323502">
      <ele>655.484</ele>
    </trkpt>
    <trkpt lat="44.698531306" lon="5.484318137">
      <ele>657.613</ele>
    </trkpt>
    <trkpt lat="44.698434071" lon="5.484420061">
      <ele>657.948</ele>
    </trkpt>
    <trkpt lat="44.698371154" lon="5.484535396">
      <ele>660.034</ele>
    </trkpt>
    <trkpt lat="44.69832349" lon="5.484626591">
      <ele>661.408</ele>
    </trkpt>
    <trkpt lat="44.698345733" lon="5.484782159">
      <ele>666.123</ele>
    </trkpt>
    <trkpt lat="44.698355902" lon="5.484873354">
      <ele>667.577</ele>
    </trkpt>
    <trkpt lat="44.698363528" lon="5.484961867">
      <ele>668.957</ele>
    </trkpt>
    <trkpt lat="44.698394033" lon="5.484924316">
      <ele>669.845</ele>
    </trkpt>
    <trkpt lat="44.698413099" lon="5.484822392">
      <ele>669.264</ele>
    </trkpt>
    <trkpt lat="44.698458856" lon="5.484731197">
      <ele>669.66</ele>
    </trkpt>
    <trkpt lat="44.698495081" lon="5.484656096">
      <ele>668.265</ele>
    </trkpt>
    <trkpt lat="44.698607568" lon="5.484629273">
      <ele>670.87</ele>
    </trkpt>
    <trkpt lat="44.698718148" lon="5.484602451">
      <ele>672.357</ele>
    </trkpt>
    <trkpt lat="44.698824915" lon="5.484570265">
      <ele>673.402</ele>
    </trkpt>
    <trkpt lat="44.698939308" lon="5.484511256">
      <ele>673.266</ele>
    </trkpt>
    <trkpt lat="44.699055608" lon="5.484449565">
      <ele>673.408</ele>
    </trkpt>
    <trkpt lat="44.699194785" lon="5.484438837">
      <ele>676.654</ele>
    </trkpt>
    <trkpt lat="44.699320617" lon="5.484433472">
      <ele>679.47</ele>
    </trkpt>
  </trkseg>
</trk>
</gpx>
