<?xml version="1.0" encoding="utf-8" standalone="yes"?>
<gpx version="1.1" creator="Benjamin Vincent" xmlns="http://www.topografix.com/GPX/1/1" xmlns:xsi="http://www.w3.org/2001/XMLSchema-instance" xsi:schemaLocation="http://www.topografix.com/GPX/1/1 http://www.topografix.com/GPX/1/1/gpx.xsd">
<trk>
  <name>09/05/2020, 23:12:44</name>
  <trkseg>
    <trkpt lat="44.713259523" lon="5.483100414">
      <ele>1006.702</ele>
    </trkpt>
    <trkpt lat="44.713373888" lon="5.482893884">
      <ele>1011.635</ele>
    </trkpt>
    <trkpt lat="44.713501594" lon="5.482735634">
      <ele>1019.084</ele>
    </trkpt>
    <trkpt lat="44.713469191" lon="5.48253715">
      <ele>1018.446</ele>
    </trkpt>
    <trkpt lat="44.713434882" lon="5.482335985">
      <ele>1021.784</ele>
    </trkpt>
    <trkpt lat="44.713400573" lon="5.482134819">
      <ele>1025.722</ele>
    </trkpt>
    <trkpt lat="44.713354827" lon="5.481936336">
      <ele>1028.389</ele>
    </trkpt>
    <trkpt lat="44.713328142" lon="5.481719077">
      <ele>1030.63</ele>
    </trkpt>
    <trkpt lat="44.713318612" lon="5.4815045">
      <ele>1033.147</ele>
    </trkpt>
    <trkpt lat="44.713326236" lon="5.481289923">
      <ele>1036.507</ele>
    </trkpt>
    <trkpt lat="44.713341484" lon="5.481069982">
      <ele>1040.035</ele>
    </trkpt>
    <trkpt lat="44.713352921" lon="5.480841994">
      <ele>1043.385</ele>
    </trkpt>
    <trkpt lat="44.713337672" lon="5.480597913">
      <ele>1045.718</ele>
    </trkpt>
    <trkpt lat="44.713307175" lon="5.480345786">
      <ele>1048.035</ele>
    </trkpt>
    <trkpt lat="44.71327096" lon="5.480090976">
      <ele>1053.464</ele>
    </trkpt>
    <trkpt lat="44.71323665" lon="5.479833484">
      <ele>1060.201</ele>
    </trkpt>
    <trkpt lat="44.713230932" lon="5.479589403">
      <ele>1066.747</ele>
    </trkpt>
    <trkpt lat="44.71322712" lon="5.479345322">
      <ele>1072.034</ele>
    </trkpt>
    <trkpt lat="44.713249993" lon="5.479114652">
      <ele>1077.23</ele>
    </trkpt>
    <trkpt lat="44.713297645" lon="5.478790104">
      <ele>1079.725</ele>
    </trkpt>
  </trkseg>
</trk>
</gpx>
