<?xml version="1.0" encoding="utf-8" standalone="yes"?>
<gpx version="1.1" creator="Benjamin Vincent" xmlns="http://www.topografix.com/GPX/1/1" xmlns:xsi="http://www.w3.org/2001/XMLSchema-instance" xsi:schemaLocation="http://www.topografix.com/GPX/1/1 http://www.topografix.com/GPX/1/1/gpx.xsd">
<trk>
  <name>10/05/2020, 16:56:40</name>
  <trkseg>
    <trkpt lat="44.699320617" lon="5.484433472">
      <ele>679.47</ele>
    </trkpt>
    <trkpt lat="44.699279785" lon="5.484539419">
      <ele>681.306</ele>
    </trkpt>
    <trkpt lat="44.699217823" lon="5.484611839">
      <ele>682.687</ele>
    </trkpt>
    <trkpt lat="44.699174925" lon="5.484642684">
      <ele>683.23</ele>
    </trkpt>
    <trkpt lat="44.699116776" lon="5.484677553">
      <ele>683.587</ele>
    </trkpt>
    <trkpt lat="44.699113916" lon="5.484711081">
      <ele>684.816</ele>
    </trkpt>
    <trkpt lat="44.699272159" lon="5.484700352">
      <ele>686.092</ele>
    </trkpt>
    <trkpt lat="44.699340794" lon="5.484776795">
      <ele>687.204</ele>
    </trkpt>
    <trkpt lat="44.699380831" lon="5.484849215">
      <ele>687.294</ele>
    </trkpt>
    <trkpt lat="44.69954384" lon="5.484874696">
      <ele>688.56</ele>
    </trkpt>
    <trkpt lat="44.699689689" lon="5.4849042">
      <ele>690.267</ele>
    </trkpt>
    <trkpt lat="44.699745931" lon="5.484961867">
      <ele>691.51</ele>
    </trkpt>
    <trkpt lat="44.699782155" lon="5.485104024">
      <ele>694.709</ele>
    </trkpt>
    <trkpt lat="44.699774529" lon="5.485260934">
      <ele>697.325</ele>
    </trkpt>
    <trkpt lat="44.699745931" lon="5.485424548">
      <ele>696.768</ele>
    </trkpt>
    <trkpt lat="44.699773576" lon="5.485525131">
      <ele>698.643</ele>
    </trkpt>
    <trkpt lat="44.699770716" lon="5.485617667">
      <ele>698.463</ele>
    </trkpt>
    <trkpt lat="44.699934835" lon="5.485668629">
      <ele>706.235</ele>
    </trkpt>
    <trkpt lat="44.699951835" lon="5.485881865">
      <ele>705.412</ele>
    </trkpt>
    <trkpt lat="44.699928957" lon="5.485943556">
      <ele>704.879</ele>
    </trkpt>
    <trkpt lat="44.699905126" lon="5.48608169">
      <ele>704.726</ele>
    </trkpt>
    <trkpt lat="44.699875575" lon="5.486210436">
      <ele>704.698</ele>
    </trkpt>
    <trkpt lat="44.699956601" lon="5.486064255">
      <ele>706.814</ele>
    </trkpt>
    <trkpt lat="44.700056693" lon="5.485806763">
      <ele>711.182</ele>
    </trkpt>
    <trkpt lat="44.700136767" lon="5.485779941">
      <ele>716.745</ele>
    </trkpt>
    <trkpt lat="44.700115795" lon="5.485885888">
      <ele>715.062</ele>
    </trkpt>
    <trkpt lat="44.700109122" lon="5.485999882">
      <ele>714.957</ele>
    </trkpt>
    <trkpt lat="44.700128188" lon="5.486120582">
      <ele>716.47</ele>
    </trkpt>
    <trkpt lat="44.700159645" lon="5.486249328">
      <ele>719.402</ele>
    </trkpt>
    <trkpt lat="44.700151224" lon="5.486356616">
      <ele>719.881</ele>
    </trkpt>
    <trkpt lat="44.700177598" lon="5.486732125">
      <ele>716.131</ele>
    </trkpt>
  </trkseg>
</trk>
</gpx>
