<?xml version="1.0" encoding="utf-8" standalone="yes"?>
<gpx version="1.1" creator="Benjamin Vincent" xmlns="http://www.topografix.com/GPX/1/1" xmlns:xsi="http://www.w3.org/2001/XMLSchema-instance" xsi:schemaLocation="http://www.topografix.com/GPX/1/1 http://www.topografix.com/GPX/1/1/gpx.xsd">
<trk>
  <name>09/05/2020, 20:17:21</name>
  <trkseg>
    <trkpt lat="44.700663755" lon="5.480254591">
      <ele>636.361</ele>
    </trkpt>
    <trkpt lat="44.700789901" lon="5.480211675">
      <ele>639.936</ele>
    </trkpt>
    <trkpt lat="44.700694577" lon="5.480069518">
      <ele>640.628</ele>
    </trkpt>
    <trkpt lat="44.700638971" lon="5.479989052">
      <ele>640.689</ele>
    </trkpt>
    <trkpt lat="44.700572243" lon="5.479905903">
      <ele>643.658</ele>
    </trkpt>
    <trkpt lat="44.700509329" lon="5.479828119">
      <ele>646.83</ele>
    </trkpt>
    <trkpt lat="44.700431163" lon="5.479787886">
      <ele>647.032</ele>
    </trkpt>
    <trkpt lat="44.700333931" lon="5.479753017">
      <ele>646.089</ele>
    </trkpt>
    <trkpt lat="44.700261484" lon="5.479728878">
      <ele>645.412</ele>
    </trkpt>
    <trkpt lat="44.700202382" lon="5.479715466">
      <ele>645.374</ele>
    </trkpt>
    <trkpt lat="44.700152813" lon="5.479723513">
      <ele>644.139</ele>
    </trkpt>
    <trkpt lat="44.700097524" lon="5.479736924">
      <ele>642.748</ele>
    </trkpt>
    <trkpt lat="44.700038423" lon="5.479753017">
      <ele>641.272</ele>
    </trkpt>
    <trkpt lat="44.699965975" lon="5.4797557">
      <ele>640.537</ele>
    </trkpt>
    <trkpt lat="44.699876369" lon="5.479739606">
      <ele>640.839</ele>
    </trkpt>
    <trkpt lat="44.699767697" lon="5.479702055">
      <ele>642.265</ele>
    </trkpt>
    <trkpt lat="44.699655213" lon="5.479664505">
      <ele>644.258</ele>
    </trkpt>
    <trkpt lat="44.699538914" lon="5.479613543">
      <ele>647.012</ele>
    </trkpt>
    <trkpt lat="44.69938671" lon="5.479492843">
      <ele>651.633</ele>
    </trkpt>
    <trkpt lat="44.699567512" lon="5.479310453">
      <ele>662.141</ele>
    </trkpt>
    <trkpt lat="44.699475999" lon="5.479203165">
      <ele>666.603</ele>
    </trkpt>
    <trkpt lat="44.699373046" lon="5.479077101">
      <ele>670.493</ele>
    </trkpt>
    <trkpt lat="44.699272" lon="5.47899127">
      <ele>672.636</ele>
    </trkpt>
    <trkpt lat="44.699170953" lon="5.478908122">
      <ele>675.095</ele>
    </trkpt>
    <trkpt lat="44.699069907" lon="5.478811562">
      <ele>676.859</ele>
    </trkpt>
    <trkpt lat="44.698976486" lon="5.47865063">
      <ele>682.434</ele>
    </trkpt>
    <trkpt lat="44.698877346" lon="5.478532612">
      <ele>686.041</ele>
    </trkpt>
    <trkpt lat="44.698774392" lon="5.478449464">
      <ele>686.297</ele>
    </trkpt>
    <trkpt lat="44.698667625" lon="5.478358269">
      <ele>686.352</ele>
    </trkpt>
    <trkpt lat="44.698560857" lon="5.478267074">
      <ele>688.159</ele>
    </trkpt>
    <trkpt lat="44.69845409" lon="5.47825098">
      <ele>688.585</ele>
    </trkpt>
    <trkpt lat="44.698351135" lon="5.478175879">
      <ele>692.0</ele>
    </trkpt>
    <trkpt lat="44.69826534" lon="5.478100777">
      <ele>695.966</ele>
    </trkpt>
    <trkpt lat="44.698173824" lon="5.478132963">
      <ele>694.673</ele>
    </trkpt>
    <trkpt lat="44.69805943" lon="5.478132963">
      <ele>695.085</ele>
    </trkpt>
    <trkpt lat="44.697952662" lon="5.478151739">
      <ele>695.648</ele>
    </trkpt>
    <trkpt lat="44.697845893" lon="5.478170514">
      <ele>696.408</ele>
    </trkpt>
    <trkpt lat="44.697737218" lon="5.478170514">
      <ele>699.26</ele>
    </trkpt>
    <trkpt lat="44.697628542" lon="5.478149056">
      <ele>704.925</ele>
    </trkpt>
    <trkpt lat="44.697538932" lon="5.478173196">
      <ele>708.024</ele>
    </trkpt>
    <trkpt lat="44.697447416" lon="5.478205383">
      <ele>708.942</ele>
    </trkpt>
    <trkpt lat="44.697426443" lon="5.47822684">
      <ele>708.447</ele>
    </trkpt>
    <trkpt lat="44.697447416" lon="5.478004217">
      <ele>714.81</ele>
    </trkpt>
    <trkpt lat="44.697504613" lon="5.477840602">
      <ele>719.32</ele>
    </trkpt>
    <trkpt lat="44.697460762" lon="5.477612615">
      <ele>723.099</ele>
    </trkpt>
    <trkpt lat="44.697477921" lon="5.47740072">
      <ele>727.86</ele>
    </trkpt>
    <trkpt lat="44.697449322" lon="5.477253199">
      <ele>730.456</ele>
    </trkpt>
    <trkpt lat="44.697441696" lon="5.477068126">
      <ele>733.675</ele>
    </trkpt>
    <trkpt lat="44.697468388" lon="5.476883054">
      <ele>737.917</ele>
    </trkpt>
    <trkpt lat="44.697521773" lon="5.476593375">
      <ele>744.91</ele>
    </trkpt>
    <trkpt lat="44.697672711" lon="5.476724803">
      <ele>750.528</ele>
    </trkpt>
    <trkpt lat="44.697766134" lon="5.476700664">
      <ele>755.684</ele>
    </trkpt>
    <trkpt lat="44.697840173" lon="5.476467311">
      <ele>763.338</ele>
    </trkpt>
    <trkpt lat="44.697927876" lon="5.47636807">
      <ele>769.796</ele>
    </trkpt>
    <trkpt lat="44.697954568" lon="5.476268828">
      <ele>772.048</ele>
    </trkpt>
    <trkpt lat="44.697988887" lon="5.476140082">
      <ele>774.951</ele>
    </trkpt>
    <trkpt lat="44.698040364" lon="5.475965738">
      <ele>779.638</ele>
    </trkpt>
    <trkpt lat="44.698105188" lon="5.475764573">
      <ele>784.859</ele>
    </trkpt>
    <trkpt lat="44.698166198" lon="5.475547314">
      <ele>788.302</ele>
    </trkpt>
    <trkpt lat="44.698236741" lon="5.475332737">
      <ele>790.309</ele>
    </trkpt>
    <trkpt lat="44.698314911" lon="5.475096703">
      <ele>793.267</ele>
    </trkpt>
    <trkpt lat="44.69839308" lon="5.474900901">
      <ele>796.156</ele>
    </trkpt>
    <trkpt lat="44.698490315" lon="5.474742651">
      <ele>799.698</ele>
    </trkpt>
    <trkpt lat="44.698578016" lon="5.474603176">
      <ele>803.305</ele>
    </trkpt>
    <trkpt lat="44.698635213" lon="5.474458337">
      <ele>805.571</ele>
    </trkpt>
    <trkpt lat="44.698709569" lon="5.474359095">
      <ele>809.629</ele>
    </trkpt>
    <trkpt lat="44.69880299" lon="5.474283993">
      <ele>815.386</ele>
    </trkpt>
    <trkpt lat="44.698884972" lon="5.474184752">
      <ele>820.734</ele>
    </trkpt>
    <trkpt lat="44.698947888" lon="5.474115014">
      <ele>824.306</ele>
    </trkpt>
    <trkpt lat="44.699001271" lon="5.473905802">
      <ele>828.162</ele>
    </trkpt>
    <trkpt lat="44.699052748" lon="5.473664403">
      <ele>831.0</ele>
    </trkpt>
    <trkpt lat="44.699108038" lon="5.473436415">
      <ele>835.088</ele>
    </trkpt>
    <trkpt lat="44.699140449" lon="5.473280847">
      <ele>838.228</ele>
    </trkpt>
    <trkpt lat="44.699104224" lon="5.473087728">
      <ele>838.307</ele>
    </trkpt>
    <trkpt lat="44.69911757" lon="5.472854376">
      <ele>841.394</ele>
    </trkpt>
    <trkpt lat="44.699130916" lon="5.472615659">
      <ele>845.275</ele>
    </trkpt>
    <trkpt lat="44.699146168" lon="5.472379625">
      <ele>849.151</ele>
    </trkpt>
    <trkpt lat="44.699161421" lon="5.47214359">
      <ele>852.849</ele>
    </trkpt>
    <trkpt lat="44.699169047" lon="5.472001433">
      <ele>855.299</ele>
    </trkpt>
    <trkpt lat="44.699130916" lon="5.471773446">
      <ele>856.611</ele>
    </trkpt>
    <trkpt lat="44.699087066" lon="5.471604466">
      <ele>857.108</ele>
    </trkpt>
    <trkpt lat="44.699047028" lon="5.471424758">
      <ele>858.325</ele>
    </trkpt>
    <trkpt lat="44.698997458" lon="5.471196771">
      <ele>859.389</ele>
    </trkpt>
    <trkpt lat="44.698980299" lon="5.470963418">
      <ele>861.719</ele>
    </trkpt>
    <trkpt lat="44.698961234" lon="5.470732749">
      <ele>863.299</ele>
    </trkpt>
    <trkpt lat="44.698942168" lon="5.470502079">
      <ele>864.336</ele>
    </trkpt>
    <trkpt lat="44.698928822" lon="5.470257998">
      <ele>865.678</ele>
    </trkpt>
    <trkpt lat="44.698904037" lon="5.470016599">
      <ele>866.85</ele>
    </trkpt>
    <trkpt lat="44.698879252" lon="5.4697752">
      <ele>868.55</ele>
    </trkpt>
    <trkpt lat="44.69885828" lon="5.46952039">
      <ele>871.996</ele>
    </trkpt>
    <trkpt lat="44.698806803" lon="5.46928972">
      <ele>873.727</ele>
    </trkpt>
    <trkpt lat="44.698732448" lon="5.469075143">
      <ele>873.94</ele>
    </trkpt>
    <trkpt lat="44.698661905" lon="5.468860567">
      <ele>874.664</ele>
    </trkpt>
    <trkpt lat="44.698591362" lon="5.46864599">
      <ele>875.198</ele>
    </trkpt>
    <trkpt lat="44.698528446" lon="5.468404591">
      <ele>872.979</ele>
    </trkpt>
    <trkpt lat="44.6985151" lon="5.468165874">
      <ele>870.281</ele>
    </trkpt>
    <trkpt lat="44.698505567" lon="5.468039811">
      <ele>868.109</ele>
    </trkpt>
    <trkpt lat="44.698614241" lon="5.467666984">
      <ele>869.988</ele>
    </trkpt>
    <trkpt lat="44.698690503" lon="5.46733439">
      <ele>871.666</ele>
    </trkpt>
    <trkpt lat="44.698835401" lon="5.466926694">
      <ele>877.611</ele>
    </trkpt>
  </trkseg>
</trk>
</gpx>