<?xml version="1.0" encoding="utf-8" standalone="yes"?>
<gpx version="1.1" creator="Benjamin Vincent" xmlns="http://www.topografix.com/GPX/1/1" xmlns:xsi="http://www.w3.org/2001/XMLSchema-instance" xsi:schemaLocation="http://www.topografix.com/GPX/1/1 http://www.topografix.com/GPX/1/1/gpx.xsd">
<trk>
  <name>22/05/2020, 23:56:18</name>
  <trkseg>
    <trkpt lat="44.713279537" lon="5.483078957">
      <ele>1007.97</ele>
    </trkpt>
    <trkpt lat="44.7132052" lon="5.48332572">
      <ele>1006.862</ele>
    </trkpt>
    <trkpt lat="44.713083211" lon="5.48350811">
      <ele>1007.398</ele>
    </trkpt>
    <trkpt lat="44.712972658" lon="5.483695865">
      <ele>1006.622</ele>
    </trkpt>
    <trkpt lat="44.71288879" lon="5.483859479">
      <ele>1006.936</ele>
    </trkpt>
    <trkpt lat="44.712774425" lon="5.484007001">
      <ele>1008.242</ele>
    </trkpt>
    <trkpt lat="44.712656247" lon="5.4841277">
      <ele>1010.713</ele>
    </trkpt>
    <trkpt lat="44.712526632" lon="5.484229624">
      <ele>1012.241</ele>
    </trkpt>
    <trkpt lat="44.712372238" lon="5.484280586">
      <ele>1012.524</ele>
    </trkpt>
    <trkpt lat="44.712214031" lon="5.484291315">
      <ele>1011.577</ele>
    </trkpt>
    <trkpt lat="44.71206726" lon="5.484216213">
      <ele>1009.253</ele>
    </trkpt>
    <trkpt lat="44.711926208" lon="5.484116971">
      <ele>1005.75</ele>
    </trkpt>
    <trkpt lat="44.711783248" lon="5.484001637">
      <ele>1001.965</ele>
    </trkpt>
    <trkpt lat="44.711630758" lon="5.483875573">
      <ele>998.838</ele>
    </trkpt>
    <trkpt lat="44.711480174" lon="5.483754873">
      <ele>994.479</ele>
    </trkpt>
    <trkpt lat="44.711325777" lon="5.483639538">
      <ele>990.797</ele>
    </trkpt>
    <trkpt lat="44.711171379" lon="5.483524203">
      <ele>986.216</ele>
    </trkpt>
    <trkpt lat="44.711016981" lon="5.483374">
      <ele>981.503</ele>
    </trkpt>
    <trkpt lat="44.710862583" lon="5.483223796">
      <ele>978.597</ele>
    </trkpt>
    <trkpt lat="44.710708184" lon="5.483076274">
      <ele>974.814</ele>
    </trkpt>
    <trkpt lat="44.710553785" lon="5.482928753">
      <ele>972.657</ele>
    </trkpt>
    <trkpt lat="44.710412729" lon="5.482786596">
      <ele>969.542</ele>
    </trkpt>
    <trkpt lat="44.710262141" lon="5.482660532">
      <ele>965.924</ele>
    </trkpt>
    <trkpt lat="44.710111553" lon="5.482518375">
      <ele>962.654</ele>
    </trkpt>
    <trkpt lat="44.709964777" lon="5.482322574">
      <ele>954.793</ele>
    </trkpt>
    <trkpt lat="44.709840875" lon="5.482169688">
      <ele>949.604</ele>
    </trkpt>
    <trkpt lat="44.709665505" lon="5.482032895">
      <ele>947.426</ele>
    </trkpt>
    <trkpt lat="44.709490135" lon="5.481909513">
      <ele>946.115</ele>
    </trkpt>
    <trkpt lat="44.709314764" lon="5.481724441">
      <ele>939.804</ele>
    </trkpt>
    <trkpt lat="44.709188955" lon="5.48157692">
      <ele>934.967</ele>
    </trkpt>
    <trkpt lat="44.709068863" lon="5.481520593">
      <ele>932.656</ele>
    </trkpt>
    <trkpt lat="44.708946865" lon="5.481520593">
      <ele>932.679</ele>
    </trkpt>
    <trkpt lat="44.708830586" lon="5.481574237">
      <ele>933.328</ele>
    </trkpt>
    <trkpt lat="44.708735275" lon="5.481702983">
      <ele>935.289</ele>
    </trkpt>
    <trkpt lat="44.708689525" lon="5.481812954">
      <ele>937.119</ele>
    </trkpt>
    <trkpt lat="44.708618995" lon="5.481635928">
      <ele>929.25</ele>
    </trkpt>
    <trkpt lat="44.70854084" lon="5.481732488">
      <ele>926.659</ele>
    </trkpt>
    <trkpt lat="44.708462684" lon="5.481826365">
      <ele>923.645</ele>
    </trkpt>
    <trkpt lat="44.70836356" lon="5.481877327">
      <ele>918.161</ele>
    </trkpt>
    <trkpt lat="44.708258717" lon="5.481933653">
      <ele>913.123</ele>
    </trkpt>
    <trkpt lat="44.708197717" lon="5.481874645">
      <ele>907.69</ele>
    </trkpt>
    <trkpt lat="44.708001374" lon="5.482102633">
      <ele>905.84</ele>
    </trkpt>

  </trkseg>
</trk>
</gpx>
