<?xml version="1.0" encoding="utf-8" standalone="yes"?>
<gpx version="1.1" creator="Benjamin Vincent" xmlns="http://www.topografix.com/GPX/1/1" xmlns:xsi="http://www.w3.org/2001/XMLSchema-instance" xsi:schemaLocation="http://www.topografix.com/GPX/1/1 http://www.topografix.com/GPX/1/1/gpx.xsd">
<trk>
  <name>09/05/2020, 21:13:28</name>
  <trkseg>
    <trkpt lat="44.715280882" lon="5.467023253">
      <ele>856.883</ele>
    </trkpt>
    <trkpt lat="44.715284376" lon="5.467028618">
      <ele>856.826</ele>
    </trkpt>
    <trkpt lat="44.715116647" lon="5.467243195">
      <ele>852.033</ele>
    </trkpt>
    <trkpt lat="44.71480406" lon="5.467307568">
      <ele>849.428</ele>
    </trkpt>
    <trkpt lat="44.714480034" lon="5.467371941">
      <ele>845.954</ele>
    </trkpt>
    <trkpt lat="44.714171256" lon="5.467430949">
      <ele>841.527</ele>
    </trkpt>
    <trkpt lat="44.7138701" lon="5.467548966">
      <ele>834.863</ele>
    </trkpt>
    <trkpt lat="44.713610876" lon="5.467720628">
      <ele>829.44</ele>
    </trkpt>
    <trkpt lat="44.713359274" lon="5.467908382">
      <ele>824.84</ele>
    </trkpt>
    <trkpt lat="44.713130545" lon="5.468069315">
      <ele>821.608</ele>
    </trkpt>
    <trkpt lat="44.712867506" lon="5.468144417">
      <ele>820.824</ele>
    </trkpt>
    <trkpt lat="44.712745516" lon="5.46820879">
      <ele>820.35</ele>
    </trkpt>
    <trkpt lat="44.712612089" lon="5.468380451">
      <ele>818.977</ele>
    </trkpt>
    <trkpt lat="44.712471038" lon="5.468530655">
      <ele>817.067</ele>
    </trkpt>
    <trkpt lat="44.712314737" lon="5.46867013">
      <ele>814.917</ele>
    </trkpt>
    <trkpt lat="44.712158436" lon="5.468814969">
      <ele>811.359</ele>
    </trkpt>
    <trkpt lat="44.712002135" lon="5.468959808">
      <ele>807.962</ele>
    </trkpt>
    <trkpt lat="44.711834396" lon="5.469088554">
      <ele>806.515</ele>
    </trkpt>
    <trkpt lat="44.71170478" lon="5.469179749">
      <ele>806.907</ele>
    </trkpt>
    <trkpt lat="44.711605661" lon="5.469587445">
      <ele>801.259</ele>
    </trkpt>
    <trkpt lat="44.711556102" lon="5.469785929">
      <ele>799.609</ele>
    </trkpt>
    <trkpt lat="44.711575163" lon="5.470032692">
      <ele>796.294</ele>
    </trkpt>
    <trkpt lat="44.711533228" lon="5.470225811">
      <ele>794.963</ele>
    </trkpt>
    <trkpt lat="44.711422672" lon="5.470349193">
      <ele>795.426</ele>
    </trkpt>
    <trkpt lat="44.711315928" lon="5.470488667">
      <ele>795.802</ele>
    </trkpt>
    <trkpt lat="44.711232058" lon="5.470692515">
      <ele>794.423</ele>
    </trkpt>
    <trkpt lat="44.711163437" lon="5.470933914">
      <ele>791.384</ele>
    </trkpt>
    <trkpt lat="44.711094816" lon="5.471180677">
      <ele>788.718</ele>
    </trkpt>
    <trkpt lat="44.711056693" lon="5.471454263">
      <ele>786.672</ele>
    </trkpt>
    <trkpt lat="44.711094816" lon="5.47170639">
      <ele>782.234</ele>
    </trkpt>
    <trkpt lat="44.711129126" lon="5.47198534">
      <ele>779.641</ele>
    </trkpt>
    <trkpt lat="44.711087191" lon="5.472226739">
      <ele>778.64</ele>
    </trkpt>
    <trkpt lat="44.711049068" lon="5.472468138">
      <ele>777.131</ele>
    </trkpt>
    <trkpt lat="44.71101857" lon="5.472752452">
      <ele>775.242</ele>
    </trkpt>
    <trkpt lat="44.710972822" lon="5.47309041">
      <ele>773.051</ele>
    </trkpt>
  </trkseg>
</trk>
</gpx>
